{
  "author": "Sterling Archer",
  "handle": "archerbot",

  "author_font": "Baveuse",
  "background_color": "000000",
  "base_text_color": "ffffff",
  "highlight_color": "ff0000",
  "text_font": "Raleway-SemiBold",
  "complexity": 3
}
